{
    "webAppId": "my-web-app-id123",
    "aed":
    {
        "accessibleSessionIdRegex": <regex>,
        "maxMessageAndUploadSize": <number_of_bytes>,
        "dataAllowance": <number_of_bytes>
    }
}